alluvial diagrams in ggplot2
…
illustrate each of the ggalluvial stats and geoms, and

showcase some of the most popular variants on the theme (including a mosaic-like full-width stratum plot, a parallel sets plot, a categorical alluvial diagram, and a weighted bump plot).

Alluvial diagrams

Alluvial data

One row per alluvium

ggalluvial recognizes two “alluvial data” formats. The first follows the visual arrangement of an alluvial diagram: Each row corresponds to a subset or amount of observations that take a specific value at each variable, and each variable has its own column. An additional column contains the weight of each row. This is the format into which the base as.data.frame() function transforms an array, for instance the 4-dimensional UCBAdmissions dataset:

dplyr::tbl_df(as.data.frame(UCBAdmissions))

## # A tibble: 24 × 4
##       Admit Gender   Dept  Freq
##      <fctr> <fctr> <fctr> <dbl>
## 1  Admitted   Male      A   512
## 2  Rejected   Male      A   313
## 3  Admitted Female      A    89
## 4  Rejected Female      A    19
## 5  Admitted   Male      B   353
## 6  Rejected   Male      B   207
## 7  Admitted Female      B    17
## 8  Rejected Female      B     8
## 9  Admitted   Male      C   120
## 10 Rejected   Male      C   205
## # ... with 14 more rows
…
The axis[0-9]* position aesthetics are non-standard.

stat_alluvium() ignores any argument to the group aesthetic; instead, StatAlluvium$compute_panel() uses group to link the rows of the internally-transformed dataset that correspond to the same alluvium.

The horizontal axis must be manually corrected (using scale_x_continuous()) to reflect the implicit categorical variable identifying the axis.

Furthermore, format aesthetics like fill are necessarily fixed for each alluvium; they cannot, for example, change from axis to axis according to the value taken at each. This means that this format and functionality cannot produce alluvial diagrams with the color schemes featured here (“Alluvial diagram”) and here (“Controlling colors”).

One row per lode

The second “alluvial” format recognized by ggalluvial contains one row per lode, and can be understood as the result of “gathering” (in the dplyr sense) the axis columns of a dataset of the preceding kind (one row per alluvium) into a “key” column indicating the axis and a “value” column indicating the value taken at that axis. The crucial difference is that this format requires an additional indexing column that links the rows corresponding to a common alluvium, as illustrated below using the to_lodes() defaults on the Titanic dataset:

dplyr::tbl_df(to_lodes(as.data.frame(Titanic), axes = 1:4))

## # A tibble: 128 × 4
##     Freq    id    key  value
##    <dbl> <int> <fctr> <fctr>
## 1      0     1  Class    1st
## 2      0     2  Class    2nd
## 3     35     3  Class    3rd
## 4      0     4  Class   Crew
## 5      0     5  Class    1st
## 6      0     6  Class    2nd
## 7     17     7  Class    3rd
## 8      0     8  Class   Crew
## 9    118     9  Class    1st
## 10   154    10  Class    2nd
## # ... with 118 more rows
…
